…
<hr>

Let’s check if there are any products that were purchased only once.

    frequency_product %>% 
      filter(count == 1)

    ## # A tibble: 7,884 × 2
    ##    product_name                                      count
    ##    <chr>                                             <int>
    ##  1 #2 Cone White Coffee Filters                          1
    ##  2 #2 Mechanical Pencils                                 1
    ##  3 +Energy Black Cherry Vegetable & Fruit Juice          1
    ##  4 1 Step-1 Minute Noodles Toasted Sesame                1
    ##  5 1% Hydrocortisone Anti-Itch Cream, Tube Anti-Itch     1
    ##  6 1% Lowfat Cultured Buttermilk                         1
    ##  7 1% Lowfat Vanilla Milk                                1
    ##  8 1,000 Mg Vitamin C Super Orange                       1
    ##  9 1/4 Pound Burgers                                     1
    ## 10 10 Tostada Shells                                     1
    ## # ℹ 7,874 more rows
…
Let’s examine the number of purchases made by each customer and sort
them from highest to lowest to identify the maximum.

    JOINED %>% 
      group_by(user_id ) %>% 
      summarise(numberOfPurches = n()) %>% 
      arrange(desc(numberOfPurches))

    ## # A tibble: 131,209 × 2
    ##    user_id numberOfPurches
    ##      <int>           <int>
    ##  1  149753              80
    ##  2  197541              80
    ##  3   63458              77
    ##  4   83993              76
    ##  5  189951              76
    ##  6  169647              75
    ##  7   31611              74
    ##  8  104741              74
    ##  9   59321              72
    ## 10  181991              72
    ## # ℹ 131,199 more rows
…
